…
For example, we can use `dplyr` to filter this table to find models for
analysis. Let’s say I am interested in finding stem volume models for
*Tsuga heterophylla*. First, let us filter the `model_type` to include
only stem volume models

``` r
stemvol_models <- allometric_models %>%
  filter(model_type == "stem volume")

stemvol_models
```

    #> # A tibble: 570 × 10
    #>    id       model_type  country region taxa   pub_id      model      family_name
    #>    <chr>    <chr>       <list>  <list> <list> <chr>       <list>     <list>     
    #>  1 be6c800c stem volume <NULL>  <NULL> <Taxa> bell_1981   <FxdEffcM> <chr [3]>  
    #>  2 e10967a8 stem volume <NULL>  <NULL> <Taxa> brackett_1… <FxdEffcM> <chr [1]>  
    #>  3 24e757f8 stem volume <NULL>  <NULL> <Taxa> brackett_1… <FxdEffcM> <chr [1]>  
    #>  4 b07847c6 stem volume <NULL>  <NULL> <Taxa> brackett_1… <FxdEffcM> <chr [1]>  
    #>  5 2b138c8c stem volume <NULL>  <NULL> <Taxa> brackett_1… <FxdEffcM> <chr [1]>  
    #>  6 191a8865 stem volume <NULL>  <NULL> <Taxa> brackett_1… <FxdEffcM> <chr [1]>  
    #>  7 5865e9eb stem volume <NULL>  <NULL> <Taxa> brackett_1… <FxdEffcM> <chr [1]>  
    #>  8 e76edbdf stem volume <NULL>  <NULL> <Taxa> brackett_1… <FxdEffcM> <chr [1]>  
    #>  9 c20b19ec stem volume <NULL>  <NULL> <Taxa> brackett_1… <FxdEffcM> <chr [1]>  
    #> 10 3a6dac01 stem volume <NULL>  <NULL> <Taxa> brackett_1… <FxdEffcM> <chr [1]>  
    #> # ℹ 560 more rows
    #> # ℹ 2 more variables: covt_name <list>, pub_year <dbl>
…
