Common Inventory Use Cases • allometric
…
## Joining, by = c("genus", "species")

n <- 1000000

trees <- tibble(
  hst = rnorm(n, 40, 3),
  dsob = rnorm(n, 50, 2),
  genus = c(rep('Alnus', n/2), rep('Pseudotsuga', n/2))
)

merge(trees, mods) %>% as_tibble() %>%
  mutate(vol = predict(model[[1]], dsob, hst))

## # A tibble: 1,000,000 × 6
##    genus   hst  dsob species model        vol
##    <chr> <dbl> <dbl> <chr>   <list>     <dbl>
##  1 Alnus  41.3  50.9 rubra   <FxdEffcM>  3.42
##  2 Alnus  43.4  50.2 rubra   <FxdEffcM>  3.48
##  3 Alnus  37.2  43.7 rubra   <FxdEffcM>  2.27
##  4 Alnus  42.8  48.8 rubra   <FxdEffcM>  3.24
##  5 Alnus  39.3  49.2 rubra   <FxdEffcM>  3.05
##  6 Alnus  41.4  46.2 rubra   <FxdEffcM>  2.80
##  7 Alnus  43.2  51.3 rubra   <FxdEffcM>  3.62
##  8 Alnus  42.4  49.5 rubra   <FxdEffcM>  3.30
##  9 Alnus  38.8  48.2 rubra   <FxdEffcM>  2.88
## 10 Alnus  42.8  49.6 rubra   <FxdEffcM>  3.34
## # … with 999,990 more rows
…
