A table of installed allometric models — allometric_models • allometric
…
pub_year - The publication year.

    Basic Searching for Models

    Filtering out nested data from a table is slightly more involved than
strictly tabular data. Fortunately the unnest_models function allows the
user to unnest any set of columns. For example, let's say we wanted to find
a model from the author "Hann". To do this, we will unnest the
family_name column using unnest_models, then filter the resulting
dataframe using dplyr::filter.

unnest_family <- allometric_models %>% unnest_models('family_name')

unnest_family %>% dplyr::filter(family_name == "Hann")
#> # A tibble: 40 x 13
#>    id       component measure  country   region    family       genus            species      model      pub_id       family_name covt_name pub_year
#>    <chr>    <chr>     <chr>    <list>    <list>    <chr>        <chr>            <chr>        <list>     <chr>        <chr>       <list>       <dbl>
#>  1 651aaa4a crown     ratio    <chr [1]> <chr [1]> Cupressaceae Calocedrus       decurrens    <FxdEffcM> ritchie_1987 Hann        <chr [4]>     1987
#>  2 22003acc stem      diameter <chr [1]> <chr [1]> Cupressaceae Calocedrus       <NA>         <FxdEffcM> hann_2011    Hann        <chr [2]>     2011
#>  3 e5d4894e stump     diameter <chr [1]> <chr [1]> Cupressaceae Calocedrus       <NA>         <FxdEffcM> hann_2011    Hann        <chr [2]>     2011
#>  4 91e2d29d stem      volume   <chr [1]> <chr [1]> Cupressaceae Calocedrus       <NA>         <FxdEffcM> hann_2011    Hann        <chr [3]>     2011
#>  5 53162fb2 crown     ratio    <chr [1]> <chr [1]> Ericaceae    Arbutus          menziesii    <FxdEffcM> ritchie_1987 Hann        <chr [3]>     1987
#>  6 c0a86b32 crown     ratio    <chr [1]> <chr [1]> Fagaceae     Chrysolepis      chrysophylla <FxdEffcM> ritchie_1987 Hann        <chr [4]>     1987
#>  7 ca55f6c1 crown     ratio    <chr [1]> <chr [1]> Fagaceae     Notholithocarpus densiflorus  <FxdEffcM> ritchie_1987 Hann        <chr [1]>     1987
#>  8 3da0e21e crown     ratio    <chr [1]> <chr [1]> Fagaceae     Quercus          chrysolepis  <FxdEffcM> ritchie_1987 Hann        <chr [1]>     1987
#>  9 77e11da9 crown     ratio    <chr [1]> <chr [1]> Fagaceae     Quercus          garryana     <FxdEffcM> ritchie_1987 Hann        <chr [1]>     1987
#> 10 cca2d9dc crown     ratio    <chr [1]> <chr [1]> Fagaceae     Quercus          kelloggii    <FxdEffcM> ritchie_1987 Hann        <chr [3]>     1987
#> # ... with 30 more rows
…
